<?xml version="1.0" encoding="UTF-8"?>
<svg width="255px" height="298px" viewBox="0 0 255 298" version="1.1" xmlns="http://www.w3.org/2000/svg" xmlns:xlink="http://www.w3.org/1999/xlink">
    <title>Group</title>
    <defs>
        <filter id="filter-1">
            <feColorMatrix in="SourceGraphic" type="matrix" values="0 0 0 0 0.752665 0 0 0 0 0.758380 0 0 0 0 0.761238 0 0 0 1.000000 0"></feColorMatrix>
        </filter>
    </defs>
    <g id="HiFi" stroke="none" stroke-width="1" fill="none" fill-rule="evenodd">
        <g id="Prenotation_1" transform="translate(-52.000000, -252.000000)">
            <g id="Group" transform="translate(52.000000, 252.000000)">
                <g filter="url(#filter-1)" id="Deselected-Ticket">
                    <g>
                        <path d="M96.9668937,18.4538597 C96.9668937,38.5647233 110.286422,54.8677995 126.716894,54.8677995 C143.040649,54.8677995 156.293741,38.7758131 156.465211,18.8452356 L189.960315,18.8454075 C194.378593,18.8454075 197.960315,22.4271295 197.960315,26.8454075 L197.960262,93.1078597 L186.216894,93.108465 L186.216894,100.657807 L197.960262,100.65686 L197.960315,228.54595 C197.960315,232.964228 194.378593,236.54595 189.960315,236.54595 L156.451724,236.546549 C155.945357,216.979044 142.826423,201.306654 126.716894,201.306654 C110.607364,201.306654 97.4884303,216.979044 96.9820639,236.546549 L65.0392621,236.54595 C60.6209841,236.54595 57.0392621,232.964228 57.0392621,228.54595 L57.0392621,100.65686 L68.7826832,100.657807 L68.7826832,93.108465 L57.0392621,93.1078597 L57.0392621,26.8454075 C57.0392621,22.4271295 60.6209841,18.8454075 65.0392621,18.8454075 L96.9692621,18.8448597 L96.9668937,18.4538597 Z M104.012946,93.108465 L80.5261042,93.108465 L80.5261042,100.657807 L104.012946,100.657807 L104.012946,93.108465 Z M139.24321,93.108465 L115.756367,93.108465 L115.756367,100.657807 L139.24321,100.657807 L139.24321,93.108465 Z M174.473473,93.108465 L150.986631,93.108465 L150.986631,100.657807 L174.473473,100.657807 L174.473473,93.108465 Z" id="Ticket" fill="#AEB4BF" transform="translate(127.499788, 127.500204) rotate(45.000000) translate(-127.499788, -127.500204) "></path>
                    </g>
                </g>
                <path d="M50.0390625,292 L50.0390625,280.773438 L56.8828125,292 L60.3984375,292 L60.3984375,274.9375 L56.8945312,274.9375 L56.8945312,286.1875 L50.0390625,274.9375 L46.5234375,274.9375 L46.5234375,292 L50.0390625,292 Z M68.7304688,292.234375 C70.5585938,292.234375 72.015625,291.646484 73.1015625,290.470703 C74.1875,289.294922 74.7304688,287.734375 74.7304688,285.789062 L74.7304688,285.789062 L74.7070312,284.921875 C74.5820312,283.125 73.9785156,281.703125 72.8964844,280.65625 C71.8144531,279.609375 70.4179688,279.085938 68.7070312,279.085938 C67.5039062,279.085938 66.4472656,279.355469 65.5371094,279.894531 C64.6269531,280.433594 63.9296875,281.195312 63.4453125,282.179688 C62.9609375,283.164062 62.71875,284.285156 62.71875,285.542969 L62.71875,285.542969 L62.71875,285.695312 C62.71875,287.710938 63.2636719,289.304688 64.3535156,290.476562 C65.4433594,291.648438 66.9023438,292.234375 68.7304688,292.234375 Z M68.7304688,289.503906 C67.8867188,289.503906 67.2382812,289.185547 66.7851562,288.548828 C66.3320312,287.912109 66.1054688,286.992188 66.1054688,285.789062 C66.1054688,284.4375 66.3320312,283.439453 66.7851562,282.794922 C67.2382812,282.150391 67.8789062,281.828125 68.7070312,281.828125 C69.5429688,281.828125 70.1914062,282.152344 70.6523438,282.800781 C71.1132812,283.449219 71.34375,284.363281 71.34375,285.542969 C71.34375,286.925781 71.1132812,287.931641 70.6523438,288.560547 C70.1914062,289.189453 69.5507812,289.503906 68.7304688,289.503906 Z M87.09375,292.234375 C87.796875,292.234375 88.4804688,292.132812 89.1445312,291.929688 L89.1445312,291.929688 L89.1445312,289.363281 C88.8554688,289.417969 88.5234375,289.445312 88.1484375,289.445312 C87.640625,289.445312 87.296875,289.34375 87.1171875,289.140625 C86.9375,288.9375 86.8476562,288.601562 86.8476562,288.132812 L86.8476562,288.132812 L86.8476562,281.804688 L89.015625,281.804688 L89.015625,279.320312 L86.8476562,279.320312 L86.8476562,276.203125 L83.4609375,276.203125 L83.4609375,279.320312 L81.609375,279.320312 L81.609375,281.804688 L83.4609375,281.804688 L83.4609375,288.636719 C83.5078125,291.035156 84.71875,292.234375 87.09375,292.234375 Z M92.7773438,277.796875 C93.3476562,277.796875 93.8066406,277.632812 94.1542969,277.304688 C94.5019531,276.976562 94.6757812,276.554688 94.6757812,276.039062 C94.6757812,275.53125 94.5039062,275.113281 94.1601562,274.785156 C93.8164062,274.457031 93.3554688,274.292969 92.7773438,274.292969 C92.1914062,274.292969 91.7285156,274.457031 91.3886719,274.785156 C91.0488281,275.113281 90.8789062,275.53125 90.8789062,276.039062 C90.8789062,276.554688 91.0527344,276.976562 91.4003906,277.304688 C91.7480469,277.632812 92.2070312,277.796875 92.7773438,277.796875 Z M94.4765625,292 L94.4765625,279.320312 L91.078125,279.320312 L91.078125,292 L94.4765625,292 Z M102.597656,292.234375 C103.566406,292.234375 104.451172,292.037109 105.251953,291.642578 C106.052734,291.248047 106.683594,290.693359 107.144531,289.978516 C107.605469,289.263672 107.839844,288.476562 107.847656,287.617188 L107.847656,287.617188 L104.671875,287.617188 C104.65625,288.1875 104.453125,288.644531 104.0625,288.988281 C103.671875,289.332031 103.164062,289.503906 102.539062,289.503906 C101.726562,289.503906 101.121094,289.21875 100.722656,288.648438 C100.324219,288.078125 100.125,287.140625 100.125,285.835938 L100.125,285.835938 L100.125,285.484375 C100.125,284.195312 100.326172,283.263672 100.728516,282.689453 C101.130859,282.115234 101.726562,281.828125 102.515625,281.828125 C103.15625,281.828125 103.671875,282.033203 104.0625,282.443359 C104.453125,282.853516 104.65625,283.386719 104.671875,284.042969 L104.671875,284.042969 L107.847656,284.042969 C107.832031,282.542969 107.345703,281.341797 106.388672,280.439453 C105.431641,279.537109 104.160156,279.085938 102.574219,279.085938 C100.761719,279.085938 99.3359375,279.667969 98.296875,280.832031 C97.2578125,281.996094 96.7382812,283.554688 96.7382812,285.507812 L96.7382812,285.507812 L96.7382812,285.730469 C96.7382812,287.761719 97.2617188,289.353516 98.3085938,290.505859 C99.3554688,291.658203 100.785156,292.234375 102.597656,292.234375 Z M113.167969,292 L113.167969,288.132812 L114.386719,286.914062 L117.644531,292 L121.535156,292 L116.554688,284.605469 L121.136719,279.320312 L117.070312,279.320312 L113.824219,283.128906 L113.167969,283.972656 L113.167969,274 L109.78125,274 L109.78125,292 L113.167969,292 Z M128.203125,292.234375 C129.257812,292.234375 130.21875,292.033203 131.085938,291.630859 C131.953125,291.228516 132.640625,290.667969 133.148438,289.949219 L133.148438,289.949219 L131.484375,288.085938 C130.75,289.03125 129.730469,289.503906 128.425781,289.503906 C127.582031,289.503906 126.884766,289.253906 126.333984,288.753906 C125.783203,288.253906 125.453125,287.589844 125.34375,286.761719 L125.34375,286.761719 L133.417969,286.761719 L133.417969,285.378906 C133.417969,283.371094 132.919922,281.820312 131.923828,280.726562 C130.927734,279.632812 129.5625,279.085938 127.828125,279.085938 C126.671875,279.085938 125.642578,279.357422 124.740234,279.900391 C123.837891,280.443359 123.140625,281.216797 122.648438,282.220703 C122.15625,283.224609 121.910156,284.363281 121.910156,285.636719 L121.910156,285.636719 L121.910156,285.964844 C121.910156,287.863281 122.494141,289.382812 123.662109,290.523438 C124.830078,291.664062 126.34375,292.234375 128.203125,292.234375 Z M130.089844,284.453125 L125.378906,284.453125 C125.496094,283.609375 125.763672,282.960938 126.181641,282.507812 C126.599609,282.054688 127.144531,281.828125 127.816406,281.828125 C128.535156,281.828125 129.089844,282.033203 129.480469,282.443359 C129.871094,282.853516 130.074219,283.433594 130.089844,284.183594 L130.089844,284.183594 L130.089844,284.453125 Z M139.640625,292.234375 C140.34375,292.234375 141.027344,292.132812 141.691406,291.929688 L141.691406,291.929688 L141.691406,289.363281 C141.402344,289.417969 141.070312,289.445312 140.695312,289.445312 C140.1875,289.445312 139.84375,289.34375 139.664062,289.140625 C139.484375,288.9375 139.394531,288.601562 139.394531,288.132812 L139.394531,288.132812 L139.394531,281.804688 L141.5625,281.804688 L141.5625,279.320312 L139.394531,279.320312 L139.394531,276.203125 L136.007812,276.203125 L136.007812,279.320312 L134.15625,279.320312 L134.15625,281.804688 L136.007812,281.804688 L136.007812,288.636719 C136.054688,291.035156 137.265625,292.234375 139.640625,292.234375 Z M153.75,292 L153.75,281.804688 L156.269531,281.804688 L156.269531,279.320312 L153.75,279.320312 L153.75,278.300781 C153.75,277.105469 154.386719,276.507812 155.660156,276.507812 C156.066406,276.507812 156.410156,276.542969 156.691406,276.613281 L156.691406,276.613281 L156.726562,273.988281 C156.046875,273.832031 155.472656,273.753906 155.003906,273.753906 C153.535156,273.753906 152.392578,274.146484 151.576172,274.931641 C150.759766,275.716797 150.351562,276.820312 150.351562,278.242188 L150.351562,278.242188 L150.351562,279.320312 L148.464844,279.320312 L148.464844,281.804688 L150.351562,281.804688 L150.351562,292 L153.75,292 Z M163.511719,292.234375 C165.339844,292.234375 166.796875,291.646484 167.882812,290.470703 C168.96875,289.294922 169.511719,287.734375 169.511719,285.789062 L169.511719,285.789062 L169.488281,284.921875 C169.363281,283.125 168.759766,281.703125 167.677734,280.65625 C166.595703,279.609375 165.199219,279.085938 163.488281,279.085938 C162.285156,279.085938 161.228516,279.355469 160.318359,279.894531 C159.408203,280.433594 158.710938,281.195312 158.226562,282.179688 C157.742188,283.164062 157.5,284.285156 157.5,285.542969 L157.5,285.542969 L157.5,285.695312 C157.5,287.710938 158.044922,289.304688 159.134766,290.476562 C160.224609,291.648438 161.683594,292.234375 163.511719,292.234375 Z M163.511719,289.503906 C162.667969,289.503906 162.019531,289.185547 161.566406,288.548828 C161.113281,287.912109 160.886719,286.992188 160.886719,285.789062 C160.886719,284.4375 161.113281,283.439453 161.566406,282.794922 C162.019531,282.150391 162.660156,281.828125 163.488281,281.828125 C164.324219,281.828125 164.972656,282.152344 165.433594,282.800781 C165.894531,283.449219 166.125,284.363281 166.125,285.542969 C166.125,286.925781 165.894531,287.931641 165.433594,288.560547 C164.972656,289.189453 164.332031,289.503906 163.511719,289.503906 Z M175.722656,292.234375 C177.199219,292.234375 178.355469,291.726562 179.191406,290.710938 L179.191406,290.710938 L179.285156,292 L182.472656,292 L182.472656,279.320312 L179.074219,279.320312 L179.074219,288.296875 C178.644531,289.09375 177.855469,289.492188 176.707031,289.492188 C175.503906,289.492188 174.902344,288.832031 174.902344,287.511719 L174.902344,287.511719 L174.902344,279.320312 L171.515625,279.320312 L171.515625,287.628906 C171.53125,289.136719 171.896484,290.28125 172.611328,291.0625 C173.326172,291.84375 174.363281,292.234375 175.722656,292.234375 Z M188.34375,292 L188.34375,283.058594 C188.820312,282.246094 189.535156,281.839844 190.488281,281.839844 C191.214844,281.839844 191.734375,282.001953 192.046875,282.326172 C192.359375,282.650391 192.515625,283.171875 192.515625,283.890625 L192.515625,283.890625 L192.515625,292 L195.902344,292 L195.902344,283.808594 C195.886719,282.238281 195.550781,281.058594 194.894531,280.269531 C194.238281,279.480469 193.238281,279.085938 191.894531,279.085938 C190.371094,279.085938 189.15625,279.652344 188.25,280.785156 L188.25,280.785156 L188.144531,279.320312 L184.957031,279.320312 L184.957031,292 L188.34375,292 Z M202.886719,292.234375 C204.214844,292.234375 205.300781,291.707031 206.144531,290.652344 L206.144531,290.652344 L206.308594,292 L209.367188,292 L209.367188,274 L205.96875,274 L205.96875,280.46875 C205.164062,279.546875 204.144531,279.085938 202.910156,279.085938 C201.371094,279.085938 200.158203,279.671875 199.271484,280.84375 C198.384766,282.015625 197.941406,283.589844 197.941406,285.566406 C197.941406,287.660156 198.392578,289.294922 199.294922,290.470703 C200.197266,291.646484 201.394531,292.234375 202.886719,292.234375 Z M203.753906,289.492188 C202.964844,289.492188 202.363281,289.175781 201.949219,288.542969 C201.535156,287.910156 201.328125,287 201.328125,285.8125 C201.328125,283.164062 202.144531,281.839844 203.777344,281.839844 C204.816406,281.839844 205.546875,282.28125 205.96875,283.164062 L205.96875,283.164062 L205.96875,288.167969 C205.539062,289.050781 204.800781,289.492188 203.753906,289.492188 Z" id="Noticketfound" fill="#C0C1C2" fill-rule="nonzero"></path>
            </g>
        </g>
    </g>
</svg>