<?xml version="1.0" encoding="UTF-8"?>
<svg width="14px" height="14px" viewBox="0 0 14 14" version="1.1" xmlns="http://www.w3.org/2000/svg" xmlns:xlink="http://www.w3.org/1999/xlink">
    <title>Icons / Navigation 24px / White / Add</title>
    <g id="HiFi" stroke="none" stroke-width="1" fill="none" fill-rule="evenodd">
        <g id="Prenotation_1" transform="translate(-297.000000, -638.000000)">
            <g id="Buttons/FAB/Normal" transform="translate(276.000000, 617.000000)">
                <g id="Add" transform="translate(16.000000, 16.000000)">
                    <rect id="Bounds" x="0" y="0" width="24" height="24"></rect>
                    <polygon id="Shape" fill="#FFFFFF" points="11 5 11 11 5 11 5 13 11 13 11 19 13 19 13 13 19 13 19 11 13 11 13 5"></polygon>
                </g>
            </g>
        </g>
    </g>
</svg>